<?xml version="1.0" encoding="utf-8"?>
<!-- Generator: Adobe Illustrator 23.0.2, SVG Export Plug-In . SVG Version: 6.00 Build 0)  -->
<svg version="1.1" id="Capa_1" xmlns="http://www.w3.org/2000/svg" xmlns:xlink="http://www.w3.org/1999/xlink" x="0px" y="0px"
	 viewBox="0 0 512 512" style="enable-background:new 0 0 512 512;" xml:space="preserve">
<style type="text/css">
	.st0{opacity:0.2;enable-background:new    ;}
	.st1{fill:#FFFFFF;}
</style>
<circle class="st0" cx="252.2" cy="260.3" r="240.3"/>
<g>
	<path class="st1" d="M338.3,247.4l-104.6-76c-3.8-2.8-8.9-3.2-13.1-1c-4.2,2.1-6.9,6.5-6.9,11.2v152c0,4.8,2.6,9.1,6.9,11.2
		c1.8,0.9,3.8,1.4,5.7,1.4c2.6,0,5.2-0.8,7.4-2.4l104.6-75.9c3.3-2.4,5.2-6.2,5.2-10.2C343.5,253.5,341.5,249.8,338.3,247.4z"/>
	<path class="st1" d="M255.2,5.5C116.2,5.5,3.5,118.2,3.5,257.3c0,139,112.7,251.7,251.8,251.7c139,0,251.8-112.7,251.8-251.7
		C507,118.2,394.3,5.5,255.2,5.5z M255.2,467c-115.8,0-209.7-93.9-209.7-209.7S139.4,47.5,255.2,47.5s209.7,94,209.7,209.8
		S371,467,255.2,467z"/>
</g>
<g>
	<path class="st1" d="M338.3,247.4l-104.6-76c-3.8-2.8-8.9-3.2-13.1-1c-4.2,2.1-6.9,6.5-6.9,11.2v152c0,4.8,2.6,9.1,6.9,11.2
		c1.8,0.9,3.8,1.4,5.7,1.4c2.6,0,5.2-0.8,7.4-2.4l104.6-75.9c3.3-2.4,5.2-6.2,5.2-10.2C343.5,253.5,341.5,249.8,338.3,247.4z"/>
	<path class="st1" d="M255.2,5.5C116.2,5.5,3.4,118.2,3.4,257.3c0,139,112.7,251.7,251.8,251.7c139,0,251.8-112.7,251.8-251.7
		C507,118.2,394.3,5.5,255.2,5.5z M255.2,467c-115.8,0-209.7-93.9-209.7-209.7S139.4,47.5,255.2,47.5s209.7,94,209.7,209.8
		S371,467,255.2,467z"/>
</g>
</svg>
