<?xml version="1.0" encoding="utf-8"?>
<!-- Generator: Adobe Illustrator 22.0.1, SVG Export Plug-In . SVG Version: 6.00 Build 0)  -->
<svg version="1.1" id="圖層_1" xmlns="http://www.w3.org/2000/svg" xmlns:xlink="http://www.w3.org/1999/xlink" x="0px" y="0px"
	 viewBox="0 0 4067.2 2928" style="enable-background:new 0 0 4067.2 2928;" xml:space="preserve">
<style type="text/css">
	.st0{fill:#FFFFFF;}
</style>
<g>
	<path class="st0" d="M3803.8,1072.9c-124.1-177.8-289.5-339.8-372.8-357.5c-83.3-17.7-161.1,32.2-161.1,32.2s-86.1-52.6-181.6-31.3
		c-118.1,26.3-230.2,158.6-301.1,284.3c-139.3,247.1-62.9,299.7-62.9,299.7c-21.6,8.3-29,53.8-25,99.6c4,45.8,68.6,280,225.1,359.9
		c156.5,79.8,336.8,78.7,418.8,61.8c102.3-21,232.3-60.4,370.9-198.8c154.1-154,114.3-208,109.7-237.7
		C3863.3,1358.6,3927.9,1250.7,3803.8,1072.9 M3530.5,1621.8c-16.6,15.3-39.9,23-67.3,25.1c-17-24.4-25.1-45.4-24.1-68
		c1-22.6,49.1-23.2,47,17.6l-0.4,0.7C3517.7,1570.9,3547.1,1606.5,3530.5,1621.8 M3569.9,1334.3c26.6,10.6-245.1,207.6-302.8,206.4
		c-26.9-0.6-69.6-34.3-92.2-51c-84-61.9-170.6-155.3-191.4-165c-4.9-2.3-9.8-3.6-14.6-3.6c-4.8,0.1-9.5,1.6-13.9,4.9
		c-2.6-15.6-6.9-21.9-17.3-32.4c-4.3,1.2-4.6,12.2-0.4,13.7c-4.9,11.3-20-4.2-17.8-14.2c-22,4.1-55.5-3.5-59.5,7.4
		c-6.4-7.2-23.2-4.7-36.3-5.6c15.5-8.1,21.7-18,36.7-8.1c6.1-0.7,9-18.7,9.1,0.3c5.3-0.6,4.1-8.2,4.9-13.5
		c9.3,8.9,49.1,16.3,40.8,7.1c10.5,1.5,27.9-29.8,40.6-39.6c4.2-3.3,7.3,17.3,10.3,13.7c0.8,0.1,6.6-8.5,8.3-10.1
		c-25.4-108.7,146.9-301.7,308.2-122.3c7.4,8.2,11.5,2.8,13.6,0.2c155.5-195.1,378.9,54.4,284.1,165c-11.3,13.2,12.5,25.4,12.9,26
		c5.4-0.6,50.9,25.8,54.1,19.8c14.5,17.6,28.8-3,45.7-4.6c-17.6,34.5,42,26,53.3,47.1C3692,1357.8,3621.6,1355,3569.9,1334.3"/>
	<path class="st0" d="M280,2216.8c-22.5,0-42.4-7.4-59-21.9c-21.5-18.8-31.6-45.4-29.9-79.1l2.3-77.8l47.6-8.4l-2.5,83.8
		c-0.8,18.7,4.3,32.8,15.6,43.2c11.2,10.3,24.6,13.8,41.2,10.9c17.8-3.1,33-12.5,46.4-28.6c13.6-16.3,20.6-33.8,21.5-53.5l8-252.7
		l0-0.4c0.8-9.9-0.7-18.1-4.7-25.1c-4.5-7.8-10.4-14.7-17.6-20.3l-0.6-0.5c-1.7-1.5-5.2-3.8-12.3-6.1c-4.3-1.4-8.7-2.8-13-4.3
		l0.1,0.7l-21.2-5.7c-13.8-3.7-24.3-7-32.1-10.2c-7.8-3.1-16.4-7.6-25.5-13.2l-0.7-0.4c-25.9-18.1-38.5-46.3-37.4-83.8l7.7-211.7
		c1.8-31.5,13.2-60.2,33.9-85.4c21-25.4,46.8-41,76.7-46.3c30.9-5.4,57.7,1.6,79.2,20.8c21.5,19.2,31.5,45.6,29.7,78.5l-2.3,77.8
		l-47.6,8.4l2.5-83.8c0.8-18.7-4.3-32.8-15.6-43.2c-11.2-10.3-24.6-13.8-41.2-10.9c-17.8,3.1-33,12.5-46.4,28.6
		c-13.6,16.3-20.6,33.8-21.5,53.5l-7.7,211c-0.2,22.2,6,38,18.9,48.1l0.4,0.3c3.3,2.8,7.2,4.8,11.7,6c4.8,1.3,10.2,2.6,16.1,3.9
		l-0.3-1.7l21.2,5.6c11.7,3.1,21.7,6.2,29.7,9.2c8.5,3.2,17.3,7.6,26.4,13.2l0.2,0.1c28.8,18.5,42.4,47.1,40.5,85.1l-8,252.7
		c-1.6,32.4-13,61.4-33.9,86.2c-21,25-46.8,40.3-76.7,45.6C293.1,2216.2,286.4,2216.8,280,2216.8 M317.2,1752.5l0.3,1.6l1.5-0.3
		l0.2-0.5L317.2,1752.5z"/>
	<path class="st0" d="M682.3,2145.8c-22.5,0-42.4-7.4-59-21.9c-21.5-18.8-31.6-45.5-29.9-79.3l27.2-773l47.6-8.4l-27.4,779.2
		c-0.8,18.6,4.3,32.7,15.6,43.1c11.2,10.3,24.6,13.8,41.2,10.9c17.8-3.1,33-12.5,46.4-28.6c13.6-16.3,20.6-33.8,21.5-53.5
		l27.2-773.1l47.6-8.4l-27.4,779.2c-1.6,32.6-13.1,61.6-33.9,86.4c-21,25-46.8,40.3-76.7,45.6
		C695.4,2145.2,688.7,2145.8,682.3,2145.8"/>
	<polygon class="st0" points="991.8,2093 1022.3,1197.1 1065.5,1189.4 1171.8,1810 1194.4,1166.7 1240.7,1158.5 1210.3,2054.5 
		1168.3,2061.9 1061.2,1442.5 1039.4,2084.6 	"/>
	<path class="st0" d="M1485.6,2004.2c-22.5,0-42.4-7.4-59-21.9c-21.5-18.8-31.6-45.4-29.9-79.2l22.9-663.9
		c1.8-31.5,13.2-60.2,33.9-85.4c21-25.4,46.8-41,76.7-46.3c30.9-5.4,57.7,1.6,79.2,20.8c21.5,19.2,31.5,45.6,29.7,78.5l-2.3,77.8
		l-47.6,8.4l2.5-83.8c0.8-18.7-4.3-32.8-15.6-43.2c-11.2-10.3-24.6-13.8-41.2-10.9c-17.8,3.1-33,12.5-46.4,28.6
		c-13.6,16.3-20.6,33.8-21.5,53.5l-22.9,663.6c-0.8,18.6,4.3,32.7,15.6,43.1c11.2,10.3,24.6,13.8,41.2,10.9
		c17.8-3.1,33-12.5,46.4-28.6c13.6-16.3,20.6-33.8,21.5-53.5l10.7-308.2l-81,14.3l1.1-47.4l128.9-22.7l-12.3,361.9
		c-1.6,32.4-13,61.4-33.9,86.2c-21,25-46.8,40.3-76.7,45.6C1498.8,2003.6,1492.1,2004.2,1485.6,2004.2"/>
	<polygon class="st0" points="1794,1951.5 1824.2,1054.4 1871.8,1046 1841.6,1943.1 	"/>
	<path class="st0" d="M2023,1911.1l30.5-895.9l98.4-17.4c30-5.3,56.6,1.8,78.4,20.8c22,19.2,32.2,45.6,30.4,78.5l-7.9,231.1
		c-0.7,22.5-7.3,43.9-19.6,63.7c-8.1,13-17.6,24.7-28.3,35c9.5,6.7,17.8,15.1,24.9,25c11.7,16.5,17.3,36.7,16.6,59.8l-12.3,362.1
		l-47.6,8.4l12.5-367.8c0.1-18.6-5.2-32.8-16.4-43.4c-10.8-10.3-23.9-13.7-40.4-10.8l-56.7,10l-15,432.4L2023,1911.1z
		 M2099.8,1055.5l-13.1,366.2l50.8-9c17.9-3.2,33.1-12.3,46.6-28.1c13.5-15.8,20.5-33.4,21.2-53.8l7.9-231.3
		c0.8-18.6-4.3-32.7-15.6-43.1c-11.2-10.3-24.6-13.8-41.2-10.9L2099.8,1055.5z"/>
	<polygon class="st0" points="2416.8,1841.7 2447.3,945.8 2494.9,937.4 2465.6,1784.7 2627.5,1756.1 2627,1804.6 	"/>
</g>
</svg>
